<svg width="48" height="48" viewBox="0 0 48 48" fill="none" xmlns="http://www.w3.org/2000/svg">
<circle cx="24" cy="24" r="23.5" stroke="white"/>
<path fill-rule="evenodd" clip-rule="evenodd" d="M26.078 17.1599L33.005 24.3601L30.927 26.52L25.469 20.8501V33.01H22.531V20.8501L17.073 26.52L15 24.3601L21.927 17.1599L24.005 15L26.078 17.1599Z" fill="#FCDF00"/>
</svg>
