<svg width="38" height="38" viewBox="0 0 38 38" fill="none" xmlns="http://www.w3.org/2000/svg">
<path d="M18.9999 3.16669C9.92042 3.16669 2.5332 10.5539 2.5332 19.6334V20.2667C2.5332 20.6169 2.81694 20.9 3.16651 20.9H34.8332C35.1834 20.9 35.4665 20.6169 35.4665 20.2667V19.6334C35.4666 10.5538 28.08 3.16669 18.9999 3.16669ZM3.79989 19.6333C3.79989 11.2524 10.619 4.4333 18.9999 4.4333C27.3808 4.4333 34.1999 11.2524 34.1999 19.6333H3.79989Z" fill="#FCDF00"/>
<path d="M20.9001 0H17.1001V1.26669H20.9001V0Z" fill="#FCDF00"/>
<path d="M19.6334 0.633316H18.3667V3.80001H19.6334V0.633316Z" fill="#FCDF00"/>
<path d="M33.8701 24.8184C33.8334 24.757 33.7947 24.6981 33.7561 24.6462C33.3724 24.1097 32.8017 23.7551 32.1506 23.648C31.5027 23.541 30.8459 23.6936 30.3114 24.0774L23.2307 29.1334H15.8334C15.4844 29.1334 15.2001 28.8496 15.2001 28.5001C15.2001 28.1505 15.4844 27.8668 15.8334 27.8668H19.9501C21.1724 27.8668 22.1668 26.8725 22.1668 25.6501C22.1668 25.6431 22.1661 25.5848 22.1655 25.5785C22.1263 24.3568 21.0958 23.4043 19.8995 23.4335H11.6605C10.9302 23.4398 10.219 23.7014 9.6585 24.1687L6.5615 26.7464C6.41707 26.8674 6.3335 27.0454 6.3335 27.2335V34.8335C6.3335 35.1837 6.61723 35.4668 6.9668 35.4668H22.6805C23.709 35.4655 24.7109 35.1032 25.5026 34.4477L33.1806 28.1037C34.2236 27.3606 34.5263 25.9179 33.8701 24.8184ZM32.4103 27.0997L24.6957 33.4717C24.1294 33.9404 23.4132 34.1987 22.6797 34.2H7.60011V27.5303L10.4697 25.1414C10.8067 24.8608 11.2329 24.7037 11.6661 24.6999L19.9197 24.6993C20.4447 24.6987 20.883 25.0958 20.9001 25.65C20.9001 26.1738 20.4739 26.6 19.9501 26.6H15.8334C14.7859 26.6 13.9334 27.4525 13.9334 28.5C13.9334 29.5475 14.7859 30.4 15.8334 30.4H23.4334C23.5652 30.4 23.6937 30.3588 23.8027 30.2822L31.0492 25.1072C31.3102 24.9198 31.6275 24.847 31.9454 24.8976C32.2627 24.9501 32.5401 25.1224 32.7307 25.3884C32.7497 25.4144 32.7668 25.4409 32.7833 25.4682C33.1038 26.0047 32.9549 26.7095 32.4103 27.0997Z" fill="white"/>
<path d="M6.94769 25.9667H0V27.2334H6.31431V36.7334H0V38H6.94769C7.29726 38 7.581 37.7169 7.581 37.3667V26.6C7.581 26.2498 7.29726 25.9667 6.94769 25.9667Z" fill="white"/>
<path d="M37.3667 19.6333H0.633309C0.283738 19.6333 0 19.9164 0 20.2666C0 22.7106 1.98869 24.6999 4.43331 24.6999H33.5666C36.0106 24.6999 37.9999 22.7106 37.9999 20.2666C38 19.9164 37.7169 19.6333 37.3667 19.6333ZM33.5667 23.4333H4.43331C2.90381 23.4333 1.6245 22.3433 1.33059 20.9H36.6693C36.3755 22.3433 35.0962 23.4333 33.5667 23.4333Z" fill="white"/>
</svg>
