<svg width="38" height="38" viewBox="0 0 38 38" fill="none" xmlns="http://www.w3.org/2000/svg">
<path d="M36.4508 27.0221H34.5141V7.23423C34.5141 5.99703 33.524 5 32.2955 5H4.53105C3.30254 5 2.3125 5.99703 2.3125 7.23423V27.0221H0.549219C0.245703 27.0221 0 27.2695 0 27.5752V28.7978C0 30.5663 1.42363 32 3.17969 32H26.4492H28.0824H33.8203C35.5764 32 37 30.5663 37 28.7978V27.5752C37 27.2695 36.7543 27.0221 36.4508 27.0221ZM3.41094 7.23423C3.41094 6.61563 3.90957 6.1062 4.53105 6.1062H32.2955C32.9098 6.1062 33.4156 6.60836 33.4156 7.23423V27.0221H3.41094V7.23423ZM21.8531 28.1283C21.8314 28.5868 21.4557 28.958 20.9932 28.958H16.0068C15.5443 28.958 15.1686 28.5868 15.1469 28.1283H21.8531ZM35.9016 28.7978C35.9016 29.955 34.9693 30.8938 33.8203 30.8938H28.0896H26.4492H3.17969C2.03066 30.8938 1.09844 29.955 1.09844 28.7978V28.1283H2.86172H14.0484C14.0701 29.1981 14.9373 30.0641 16.0068 30.0641H20.9859C22.0555 30.0641 22.9227 29.1981 22.9443 28.1283H33.9648H35.9016V28.7978Z" fill="white"/>
<path d="M16.0493 13.6212L21.1268 16.5035L16.0493 19.3857V13.6212ZM15.2465 12C15.1197 12 15 12.1039 15 12.2425V20.7575C15 20.903 15.1197 21 15.2465 21C15.2887 21 15.331 20.9931 15.3732 20.9654L22.8732 16.7044C23.0423 16.6074 23.0423 16.3718 22.8732 16.2818L15.3732 12.0208C15.331 12.0069 15.2887 12 15.2465 12Z" fill="#FCDF00"/>
</svg>
