<svg width="38" height="38" viewBox="0 0 38 38" fill="none" xmlns="http://www.w3.org/2000/svg">
<path d="M25.9969 7.2C26.2969 7.2 26.4969 7 26.4969 6.7V3C26.4969 1.4 25.1969 0 23.4969 0H8.79688C7.19687 0 5.79688 1.3 5.79688 3V35C5.79688 36.6 7.09687 38 8.79688 38H23.5969C25.1969 38 26.5969 36.7 26.5969 35V31.3C26.5969 31 26.3969 30.8 26.0969 30.8C25.7969 30.8 25.5969 31 25.5969 31.3V35C25.5969 36.1 24.6969 37 23.5969 37H8.79688C7.69687 37 6.79688 36.1 6.79688 35V3C6.79688 1.9 7.69687 1 8.79688 1H23.5969C24.6969 1 25.5969 1.9 25.5969 3V6.8C25.4969 7 25.7969 7.2 25.9969 7.2Z" fill="white"/>
<path d="M19.0969 4.2C19.0969 3.9 18.8969 3.7 18.5969 3.7H13.6969C13.3969 3.7 13.1969 3.9 13.1969 4.2C13.1969 4.5 13.3969 4.7 13.6969 4.7H18.5969C18.8969 4.7 19.0969 4.5 19.0969 4.2Z" fill="white"/>
<path d="M14.3969 32.6C14.3969 33.6 15.1969 34.3 16.0969 34.3C16.9969 34.3 17.7969 33.5 17.7969 32.6C17.7969 31.7 16.9969 30.9 16.0969 30.9C15.1969 30.9 14.3969 31.6 14.3969 32.6ZM16.8969 32.6C16.8969 33 16.5969 33.3 16.1969 33.3C15.7969 33.3 15.4969 33 15.4969 32.6C15.4969 32.2 15.7969 31.9 16.1969 31.9C16.5969 31.9 16.8969 32.2 16.8969 32.6Z" fill="white"/>
<path d="M33.2008 12.3C33.2008 11.8 33.0008 11.3 32.8008 11.1C32.6008 10.9 32.2008 10.7 31.6008 10.7C31.1008 10.7 30.3008 10.9 29.4008 11.8L26.3008 15L19.9008 13.6C19.7008 13.6 19.6008 13.6 19.4008 13.7L18.0008 15.2C17.9008 15.3 17.8008 15.5 17.9008 15.6C18.0008 15.7 18.0008 15.9 18.2008 16L23.3008 18.2L21.0008 21H19.3008C19.2008 21 19.1008 21 19.0008 21.1L18.0008 22C17.9008 22.1 17.8008 22.3 17.8008 22.5C17.8008 22.7 18.0008 22.8 18.1008 22.9L20.3008 23.7L21.1008 25.8C21.2008 26 21.3008 26.1 21.5008 26.1C21.7008 26.1 21.8008 26.1 22.0008 26L23.0008 25C23.1008 24.9 23.1008 24.8 23.1008 24.6V22.9L25.8008 20.6L27.9008 25.7C28.0008 25.9 28.1008 26 28.3008 26H28.4008C28.5008 26 28.7008 25.9 28.8008 25.9L30.2008 24.5C30.3008 24.4 30.4008 24.2 30.3008 24L28.9008 17.6L32.1008 14.5C33.0008 13.6 33.2008 12.8 33.2008 12.3ZM29.3008 24L28.6008 24.7L26.5008 19.6C26.4008 19.5 26.3008 19.3 26.2008 19.3C26.0008 19.3 25.9008 19.3 25.8008 19.4L22.4008 22.3C22.3008 22.4 22.2008 22.5 22.2008 22.7V24.4L21.9008 24.7L21.2008 23C21.1008 22.8 20.9008 22.7 20.7008 22.7L19.3008 22.2L19.5008 22H21.2008C21.3008 22 21.5008 21.9 21.6008 21.8L24.5008 18.3C24.6008 18.2 24.6008 18 24.6008 17.9C24.6008 17.7 24.5008 17.6 24.3008 17.6L19.2008 15.4L19.9008 14.7L26.3008 16.1C26.5008 16.1 26.6008 16.1 26.8008 16L30.1008 12.6C31.1008 11.6 32.0008 11.8 32.1008 11.9C32.2008 12.1 32.5008 12.9 31.4008 13.9L28.0008 17.1C27.9008 17.2 27.8008 17.4 27.9008 17.6L29.3008 24Z" fill="#FCDF00"/>
</svg>
