<svg width="25" height="22" viewBox="0 0 25 22" fill="none" xmlns="http://www.w3.org/2000/svg">
<path fill-rule="evenodd" clip-rule="evenodd" d="M0.424977 10.5309L5.96497 12.6377L8.10898 19.6377C8.13901 19.7409 8.19421 19.8352 8.26958 19.9118C8.34495 19.9884 8.43814 20.0451 8.54082 20.0768C8.64351 20.1085 8.75247 20.1142 8.85792 20.0934C8.96337 20.0726 9.06199 20.0259 9.14499 19.9577L12.233 17.3978C12.3898 17.2676 12.5859 17.194 12.7897 17.1891C12.9934 17.1843 13.1928 17.2485 13.3556 17.3711L18.925 21.4778C19.0136 21.5421 19.1169 21.5828 19.2254 21.5967C19.334 21.6106 19.4443 21.5971 19.5462 21.5573C19.6482 21.5175 19.7385 21.4526 19.8088 21.3688C19.8792 21.285 19.9274 21.1851 19.949 21.0778L24.029 1.13117C24.0521 1.01576 24.0443 0.896221 24.0063 0.784816C23.9683 0.673411 23.9014 0.573935 23.8126 0.49673C23.7237 0.419524 23.616 0.367121 23.5004 0.345037C23.3848 0.322953 23.2654 0.332057 23.1543 0.371079L0.418345 9.291C0.294257 9.34081 0.18801 9.42678 0.113413 9.53775C0.0388158 9.64871 -0.000709235 9.77969 9.63447e-06 9.9134C0.000728504 10.0471 0.0416552 10.1773 0.117441 10.2874C0.193227 10.3976 0.300361 10.4824 0.424977 10.5309ZM7.75831 11.5176L18.585 4.7311C18.6259 4.70657 18.6744 4.69809 18.7211 4.70734C18.7679 4.71659 18.8095 4.74299 18.8379 4.78123C18.8663 4.81947 18.8795 4.86662 18.8749 4.91405C18.8703 4.96147 18.8483 5.00569 18.813 5.03774L9.87965 13.4778C9.56533 13.7795 9.36312 14.179 9.30632 14.611L9.00233 16.9043C8.99524 16.9691 8.96568 17.0293 8.91879 17.0745C8.8719 17.1198 8.81064 17.1472 8.74566 17.152C8.68067 17.1568 8.61606 17.1385 8.56308 17.1006C8.5101 17.0626 8.4721 17.0074 8.45566 16.9443L7.285 12.7578C7.21883 12.5272 7.22977 12.2811 7.31617 12.0573C7.40257 11.8335 7.55968 11.6439 7.76364 11.5176H7.75831Z" fill="white"/>
</svg>
